{
    "iter": 150,
    "var":
    [
        "A",
        "B",
        "C",
        "Paumé"
    ],
    "init":
    {
        "div":50,
        "index":
        [
            "A",
            "B",
            "C"
        ]
    },
    "proba":
    {
        "A":
        {
            "divi":100,
            "A":45,
            "B":30,
            "C":20,
            "Paumé":5
        },
        "B":
        {
            "divi":100,
            "A":20,
            "B":55,
            "C":20,
            "Paumé":5
        },
        "C":
        {
            "divi":100,
            "A":40,
            "B":40,
            "C":15,
            "Paumé":5
        },
        "Paumé":
        {
            "divi":1,
            "A":0,
            "B":0,
            "C":0,
            "Paumé":1
        }
    }
}