{
    "iter": 150,
    "var":
    [
        "A",
        "B",
        "C"
    ],
    "init":
    {
        "div":50,
        "index":
        [
            "A",
            "B",
            "C"
        ]
    },
    "proba":
    {
        "A":
        {
            "divi":100,
            "A":50,
            "B":30,
            "C":20
        },
        "B":
        {
            "divi":100,
            "A":20,
            "B":60,
            "C":20
        },
        "C":
        {
            "divi":100,
            "A":40,
            "B":40,
            "C":20
        }
    }
}